Spark Command: /usr/lib/jvm/jre-1.8.0-openjdk/bin/java -cp /home/avkhann2/spark-2.4.0-bin-hadoop2.7//conf/:/home/avkhann2/spark-2.4.0-bin-hadoop2.7/jars/* -Xmx1g org.apache.spark.deploy.master.Master --host 172.22.156.15 --port 7077 --webui-port 8080
========================================
2018-11-30 18:05:08 INFO  Master:2566 - Started daemon with process name: 27830@fa18-cs425-g05-01.cs.illinois.edu
2018-11-30 18:05:08 INFO  SignalUtils:54 - Registered signal handler for TERM
2018-11-30 18:05:08 INFO  SignalUtils:54 - Registered signal handler for HUP
2018-11-30 18:05:08 INFO  SignalUtils:54 - Registered signal handler for INT
2018-11-30 18:05:08 WARN  NativeCodeLoader:62 - Unable to load native-hadoop library for your platform... using builtin-java classes where applicable
2018-11-30 18:05:08 INFO  SecurityManager:54 - Changing view acls to: avkhann2
2018-11-30 18:05:08 INFO  SecurityManager:54 - Changing modify acls to: avkhann2
2018-11-30 18:05:08 INFO  SecurityManager:54 - Changing view acls groups to: 
2018-11-30 18:05:08 INFO  SecurityManager:54 - Changing modify acls groups to: 
2018-11-30 18:05:08 INFO  SecurityManager:54 - SecurityManager: authentication disabled; ui acls disabled; users  with view permissions: Set(avkhann2); groups with view permissions: Set(); users  with modify permissions: Set(avkhann2); groups with modify permissions: Set()
2018-11-30 18:05:09 INFO  Utils:54 - Successfully started service 'sparkMaster' on port 7077.
2018-11-30 18:05:09 INFO  Master:54 - Starting Spark master at spark://172.22.156.15:7077
2018-11-30 18:05:09 INFO  Master:54 - Running Spark version 2.4.0
2018-11-30 18:05:10 INFO  log:192 - Logging initialized @3251ms
2018-11-30 18:05:10 INFO  Server:351 - jetty-9.3.z-SNAPSHOT, build timestamp: unknown, git hash: unknown
2018-11-30 18:05:10 INFO  Server:419 - Started @3456ms
2018-11-30 18:05:10 INFO  AbstractConnector:278 - Started ServerConnector@67fe9291{HTTP/1.1,[http/1.1]}{0.0.0.0:8080}
2018-11-30 18:05:10 INFO  Utils:54 - Successfully started service 'MasterUI' on port 8080.
2018-11-30 18:05:10 INFO  ContextHandler:781 - Started o.s.j.s.ServletContextHandler@2d33f2d2{/app,null,AVAILABLE,@Spark}
2018-11-30 18:05:10 INFO  ContextHandler:781 - Started o.s.j.s.ServletContextHandler@5ab7da24{/app/json,null,AVAILABLE,@Spark}
2018-11-30 18:05:10 INFO  ContextHandler:781 - Started o.s.j.s.ServletContextHandler@efc66fd{/,null,AVAILABLE,@Spark}
2018-11-30 18:05:10 INFO  ContextHandler:781 - Started o.s.j.s.ServletContextHandler@77eb12f0{/json,null,AVAILABLE,@Spark}
2018-11-30 18:05:10 INFO  ContextHandler:781 - Started o.s.j.s.ServletContextHandler@136980d3{/static,null,AVAILABLE,@Spark}
2018-11-30 18:05:10 INFO  ContextHandler:781 - Started o.s.j.s.ServletContextHandler@5d776978{/app/kill,null,AVAILABLE,@Spark}
2018-11-30 18:05:10 INFO  ContextHandler:781 - Started o.s.j.s.ServletContextHandler@46a931b1{/driver/kill,null,AVAILABLE,@Spark}
2018-11-30 18:05:10 INFO  MasterWebUI:54 - Bound MasterWebUI to 0.0.0.0, and started at http://master:8080
2018-11-30 18:05:10 INFO  ContextHandler:781 - Started o.s.j.s.ServletContextHandler@506a047d{/metrics/master/json,null,AVAILABLE,@Spark}
2018-11-30 18:05:10 INFO  ContextHandler:781 - Started o.s.j.s.ServletContextHandler@267f4755{/metrics/applications/json,null,AVAILABLE,@Spark}
2018-11-30 18:05:10 INFO  Master:54 - I have been elected leader! New state: ALIVE
2018-11-30 18:05:13 INFO  Master:54 - Registering worker 172.22.158.17:38423 with 8 cores, 2.7 GB RAM
2018-11-30 18:05:13 INFO  Master:54 - Registering worker 172.22.156.18:41386 with 8 cores, 2.7 GB RAM
2018-11-30 18:05:13 INFO  Master:54 - Registering worker 172.22.158.15:46531 with 8 cores, 2.7 GB RAM
2018-11-30 18:05:13 INFO  Master:54 - Registering worker 172.22.154.16:37615 with 8 cores, 2.7 GB RAM
2018-11-30 18:05:14 INFO  Master:54 - Registering worker 172.22.158.16:36302 with 8 cores, 2.7 GB RAM
2018-11-30 18:05:14 INFO  Master:54 - Registering worker 172.22.156.16:39290 with 8 cores, 2.7 GB RAM
2018-11-30 18:05:14 INFO  Master:54 - Registering worker 172.22.154.17:32844 with 8 cores, 2.7 GB RAM
2018-11-30 18:05:14 INFO  Master:54 - Registering worker 172.22.154.18:44099 with 8 cores, 2.7 GB RAM
2018-11-30 18:05:18 INFO  Master:54 - Registering worker 172.22.156.15:41118 with 4 cores, 2.7 GB RAM
2018-11-30 18:08:24 INFO  Master:54 - Registering app PythonWordCount
2018-11-30 18:08:24 INFO  Master:54 - Registered app PythonWordCount with ID app-20181130180824-0000
2018-11-30 18:08:24 INFO  Master:54 - Launching executor app-20181130180824-0000/0 on worker worker-20181130180513-172.22.158.16-36302
2018-11-30 18:08:24 INFO  Master:54 - Launching executor app-20181130180824-0000/1 on worker worker-20181130180513-172.22.156.16-39290
2018-11-30 18:08:24 INFO  Master:54 - Launching executor app-20181130180824-0000/2 on worker worker-20181130180512-172.22.158.17-38423
2018-11-30 18:08:24 INFO  Master:54 - Launching executor app-20181130180824-0000/3 on worker worker-20181130180512-172.22.154.16-37615
2018-11-30 18:08:24 INFO  Master:54 - Launching executor app-20181130180824-0000/4 on worker worker-20181130180513-172.22.154.18-44099
2018-11-30 18:08:24 INFO  Master:54 - Launching executor app-20181130180824-0000/5 on worker worker-20181130180513-172.22.154.17-32844
2018-11-30 18:08:24 INFO  Master:54 - Launching executor app-20181130180824-0000/6 on worker worker-20181130180512-172.22.156.18-41386
2018-11-30 18:08:24 INFO  Master:54 - Launching executor app-20181130180824-0000/7 on worker worker-20181130180512-172.22.158.15-46531
2018-11-30 18:08:24 INFO  Master:54 - Launching executor app-20181130180824-0000/8 on worker worker-20181130174630-172.22.156.15-41118
2018-11-30 18:08:51 INFO  Master:54 - Received unregister request from application app-20181130180824-0000
2018-11-30 18:08:51 INFO  Master:54 - Removing app app-20181130180824-0000
2018-11-30 18:08:51 WARN  Master:66 - Got status update for unknown executor app-20181130180824-0000/4
2018-11-30 18:08:51 WARN  Master:66 - Got status update for unknown executor app-20181130180824-0000/0
2018-11-30 18:08:51 WARN  Master:66 - Got status update for unknown executor app-20181130180824-0000/2
2018-11-30 18:08:51 WARN  Master:66 - Got status update for unknown executor app-20181130180824-0000/7
2018-11-30 18:08:51 WARN  Master:66 - Got status update for unknown executor app-20181130180824-0000/5
2018-11-30 18:08:51 WARN  Master:66 - Got status update for unknown executor app-20181130180824-0000/6
2018-11-30 18:08:51 INFO  Master:54 - 172.22.156.15:43628 got disassociated, removing it.
2018-11-30 18:08:51 INFO  Master:54 - master:45404 got disassociated, removing it.
2018-11-30 18:08:51 WARN  Master:66 - Got status update for unknown executor app-20181130180824-0000/1
2018-11-30 18:08:51 WARN  Master:66 - Got status update for unknown executor app-20181130180824-0000/3
2018-11-30 18:08:51 WARN  Master:66 - Got status update for unknown executor app-20181130180824-0000/8
2018-11-30 18:10:33 INFO  Master:54 - Registering app PythonWordCount
2018-11-30 18:10:33 INFO  Master:54 - Registered app PythonWordCount with ID app-20181130181033-0001
2018-11-30 18:10:33 INFO  Master:54 - Launching executor app-20181130181033-0001/0 on worker worker-20181130180513-172.22.158.16-36302
2018-11-30 18:10:33 INFO  Master:54 - Launching executor app-20181130181033-0001/1 on worker worker-20181130180513-172.22.156.16-39290
2018-11-30 18:10:33 INFO  Master:54 - Launching executor app-20181130181033-0001/2 on worker worker-20181130180512-172.22.158.17-38423
2018-11-30 18:10:33 INFO  Master:54 - Launching executor app-20181130181033-0001/3 on worker worker-20181130180512-172.22.154.16-37615
2018-11-30 18:10:33 INFO  Master:54 - Launching executor app-20181130181033-0001/4 on worker worker-20181130180513-172.22.154.18-44099
2018-11-30 18:10:33 INFO  Master:54 - Launching executor app-20181130181033-0001/5 on worker worker-20181130180513-172.22.154.17-32844
2018-11-30 18:10:33 INFO  Master:54 - Launching executor app-20181130181033-0001/6 on worker worker-20181130180512-172.22.156.18-41386
2018-11-30 18:10:33 INFO  Master:54 - Launching executor app-20181130181033-0001/7 on worker worker-20181130180512-172.22.158.15-46531
2018-11-30 18:10:33 INFO  Master:54 - Launching executor app-20181130181033-0001/8 on worker worker-20181130174630-172.22.156.15-41118
2018-11-30 18:10:50 INFO  Master:54 - Received unregister request from application app-20181130181033-0001
2018-11-30 18:10:50 INFO  Master:54 - Removing app app-20181130181033-0001
2018-11-30 18:10:50 WARN  Master:66 - Got status update for unknown executor app-20181130181033-0001/6
2018-11-30 18:10:50 WARN  Master:66 - Got status update for unknown executor app-20181130181033-0001/1
2018-11-30 18:10:50 WARN  Master:66 - Got status update for unknown executor app-20181130181033-0001/7
2018-11-30 18:10:50 WARN  Master:66 - Got status update for unknown executor app-20181130181033-0001/4
2018-11-30 18:10:50 WARN  Master:66 - Got status update for unknown executor app-20181130181033-0001/2
2018-11-30 18:10:50 WARN  Master:66 - Got status update for unknown executor app-20181130181033-0001/5
2018-11-30 18:10:50 INFO  Master:54 - 172.22.156.15:43638 got disassociated, removing it.
2018-11-30 18:10:50 INFO  Master:54 - master:43551 got disassociated, removing it.
2018-11-30 18:10:51 WARN  Master:66 - Got status update for unknown executor app-20181130181033-0001/0
2018-11-30 18:10:51 WARN  Master:66 - Got status update for unknown executor app-20181130181033-0001/3
2018-11-30 18:10:51 WARN  Master:66 - Got status update for unknown executor app-20181130181033-0001/8
2018-11-30 18:13:01 INFO  Master:54 - Registering app PythonWordCount
2018-11-30 18:13:01 INFO  Master:54 - Registered app PythonWordCount with ID app-20181130181301-0002
2018-11-30 18:13:01 INFO  Master:54 - Launching executor app-20181130181301-0002/0 on worker worker-20181130180513-172.22.158.16-36302
2018-11-30 18:13:01 INFO  Master:54 - Launching executor app-20181130181301-0002/1 on worker worker-20181130180513-172.22.156.16-39290
2018-11-30 18:13:01 INFO  Master:54 - Launching executor app-20181130181301-0002/2 on worker worker-20181130180512-172.22.158.17-38423
2018-11-30 18:13:01 INFO  Master:54 - Launching executor app-20181130181301-0002/3 on worker worker-20181130180512-172.22.154.16-37615
2018-11-30 18:13:01 INFO  Master:54 - Launching executor app-20181130181301-0002/4 on worker worker-20181130180513-172.22.154.18-44099
2018-11-30 18:13:01 INFO  Master:54 - Launching executor app-20181130181301-0002/5 on worker worker-20181130180513-172.22.154.17-32844
2018-11-30 18:13:01 INFO  Master:54 - Launching executor app-20181130181301-0002/6 on worker worker-20181130180512-172.22.156.18-41386
2018-11-30 18:13:01 INFO  Master:54 - Launching executor app-20181130181301-0002/7 on worker worker-20181130180512-172.22.158.15-46531
2018-11-30 18:13:01 INFO  Master:54 - Launching executor app-20181130181301-0002/8 on worker worker-20181130174630-172.22.156.15-41118
2018-11-30 18:13:22 INFO  Master:54 - Received unregister request from application app-20181130181301-0002
2018-11-30 18:13:22 INFO  Master:54 - Removing app app-20181130181301-0002
2018-11-30 18:13:22 WARN  Master:66 - Got status update for unknown executor app-20181130181301-0002/3
2018-11-30 18:13:22 WARN  Master:66 - Got status update for unknown executor app-20181130181301-0002/0
2018-11-30 18:13:22 WARN  Master:66 - Got status update for unknown executor app-20181130181301-0002/4
2018-11-30 18:13:22 INFO  Master:54 - 172.22.156.15:43650 got disassociated, removing it.
2018-11-30 18:13:22 INFO  Master:54 - master:45592 got disassociated, removing it.
2018-11-30 18:13:22 WARN  Master:66 - Got status update for unknown executor app-20181130181301-0002/6
2018-11-30 18:13:22 WARN  Master:66 - Got status update for unknown executor app-20181130181301-0002/2
2018-11-30 18:13:22 WARN  Master:66 - Got status update for unknown executor app-20181130181301-0002/7
2018-11-30 18:13:22 WARN  Master:66 - Got status update for unknown executor app-20181130181301-0002/1
2018-11-30 18:13:22 WARN  Master:66 - Got status update for unknown executor app-20181130181301-0002/5
2018-11-30 18:13:22 WARN  Master:66 - Got status update for unknown executor app-20181130181301-0002/8
2018-11-30 18:18:28 INFO  Master:54 - Registering app PythonWordCount
2018-11-30 18:18:28 INFO  Master:54 - Registered app PythonWordCount with ID app-20181130181828-0003
2018-11-30 18:18:28 INFO  Master:54 - Launching executor app-20181130181828-0003/0 on worker worker-20181130180513-172.22.158.16-36302
2018-11-30 18:18:28 INFO  Master:54 - Launching executor app-20181130181828-0003/1 on worker worker-20181130180513-172.22.156.16-39290
2018-11-30 18:18:28 INFO  Master:54 - Launching executor app-20181130181828-0003/2 on worker worker-20181130180512-172.22.158.17-38423
2018-11-30 18:18:28 INFO  Master:54 - Launching executor app-20181130181828-0003/3 on worker worker-20181130180512-172.22.154.16-37615
2018-11-30 18:18:28 INFO  Master:54 - Launching executor app-20181130181828-0003/4 on worker worker-20181130180513-172.22.154.18-44099
2018-11-30 18:18:28 INFO  Master:54 - Launching executor app-20181130181828-0003/5 on worker worker-20181130180513-172.22.154.17-32844
2018-11-30 18:18:28 INFO  Master:54 - Launching executor app-20181130181828-0003/6 on worker worker-20181130180512-172.22.156.18-41386
2018-11-30 18:18:28 INFO  Master:54 - Launching executor app-20181130181828-0003/7 on worker worker-20181130180512-172.22.158.15-46531
2018-11-30 18:18:28 INFO  Master:54 - Launching executor app-20181130181828-0003/8 on worker worker-20181130174630-172.22.156.15-41118
2018-11-30 18:18:45 INFO  Master:54 - Received unregister request from application app-20181130181828-0003
2018-11-30 18:18:45 INFO  Master:54 - Removing app app-20181130181828-0003
2018-11-30 18:18:45 WARN  Master:66 - Got status update for unknown executor app-20181130181828-0003/2
2018-11-30 18:18:45 WARN  Master:66 - Got status update for unknown executor app-20181130181828-0003/6
2018-11-30 18:18:45 WARN  Master:66 - Got status update for unknown executor app-20181130181828-0003/0
2018-11-30 18:18:45 WARN  Master:66 - Got status update for unknown executor app-20181130181828-0003/5
2018-11-30 18:18:45 WARN  Master:66 - Got status update for unknown executor app-20181130181828-0003/7
2018-11-30 18:18:45 WARN  Master:66 - Got status update for unknown executor app-20181130181828-0003/3
2018-11-30 18:18:45 WARN  Master:66 - Got status update for unknown executor app-20181130181828-0003/4
2018-11-30 18:18:45 WARN  Master:66 - Got status update for unknown executor app-20181130181828-0003/1
2018-11-30 18:18:45 INFO  Master:54 - 172.22.156.15:43768 got disassociated, removing it.
2018-11-30 18:18:45 INFO  Master:54 - master:38232 got disassociated, removing it.
2018-11-30 18:18:46 WARN  Master:66 - Got status update for unknown executor app-20181130181828-0003/8
2018-11-30 18:20:12 INFO  Master:54 - 172.22.154.16:34080 got disassociated, removing it.
2018-11-30 18:20:12 INFO  Master:54 - 172.22.154.16:37615 got disassociated, removing it.
2018-11-30 18:20:12 INFO  Master:54 - Removing worker worker-20181130180512-172.22.154.16-37615 on 172.22.154.16:37615
2018-11-30 18:20:12 INFO  Master:54 - Telling app of lost worker: worker-20181130180512-172.22.154.16-37615
2018-11-30 18:20:12 WARN  Master:66 - Got status update for unknown executor app-20181130180824-0000/4
2018-11-30 18:20:12 INFO  Master:54 - 172.22.158.15:33242 got disassociated, removing it.
2018-11-30 18:20:12 INFO  Master:54 - 172.22.158.15:46531 got disassociated, removing it.
2018-11-30 18:20:12 INFO  Master:54 - Removing worker worker-20181130180512-172.22.158.15-46531 on 172.22.158.15:46531
2018-11-30 18:20:12 INFO  Master:54 - Telling app of lost worker: worker-20181130180512-172.22.158.15-46531
2018-11-30 18:20:12 INFO  Master:54 - 172.22.158.16:33420 got disassociated, removing it.
2018-11-30 18:20:12 INFO  Master:54 - 172.22.158.16:36302 got disassociated, removing it.
2018-11-30 18:20:12 INFO  Master:54 - Removing worker worker-20181130180513-172.22.158.16-36302 on 172.22.158.16:36302
2018-11-30 18:20:12 INFO  Master:54 - Telling app of lost worker: worker-20181130180513-172.22.158.16-36302
2018-11-30 18:20:12 ERROR Master:43 - RECEIVED SIGNAL TERM
2018-11-30 18:20:12 INFO  Master:54 - 172.22.154.17:46850 got disassociated, removing it.
2018-11-30 18:20:12 INFO  Master:54 - 172.22.154.17:32844 got disassociated, removing it.
2018-11-30 18:20:12 INFO  Master:54 - Removing worker worker-20181130180513-172.22.154.17-32844 on 172.22.154.17:32844
2018-11-30 18:20:12 INFO  Master:54 - Telling app of lost worker: worker-20181130180513-172.22.154.17-32844
