Spark Command: /usr/lib/jvm/jre-1.8.0-openjdk/bin/java -cp /home/avkhann2/spark-2.4.0-bin-hadoop2.7//conf/:/home/avkhann2/spark-2.4.0-bin-hadoop2.7/jars/* -Xmx1g org.apache.spark.deploy.worker.Worker --webui-port 8081 spark://172.22.156.15:7077
========================================
2018-11-30 17:44:31 INFO  Worker:2566 - Started daemon with process name: 26474@fa18-cs425-g05-01.cs.illinois.edu
2018-11-30 17:44:31 INFO  SignalUtils:54 - Registered signal handler for TERM
2018-11-30 17:44:31 INFO  SignalUtils:54 - Registered signal handler for HUP
2018-11-30 17:44:31 INFO  SignalUtils:54 - Registered signal handler for INT
2018-11-30 17:44:32 WARN  NativeCodeLoader:62 - Unable to load native-hadoop library for your platform... using builtin-java classes where applicable
2018-11-30 17:44:32 INFO  SecurityManager:54 - Changing view acls to: avkhann2
2018-11-30 17:44:32 INFO  SecurityManager:54 - Changing modify acls to: avkhann2
2018-11-30 17:44:32 INFO  SecurityManager:54 - Changing view acls groups to: 
2018-11-30 17:44:32 INFO  SecurityManager:54 - Changing modify acls groups to: 
2018-11-30 17:44:32 INFO  SecurityManager:54 - SecurityManager: authentication disabled; ui acls disabled; users  with view permissions: Set(avkhann2); groups with view permissions: Set(); users  with modify permissions: Set(avkhann2); groups with modify permissions: Set()
2018-11-30 17:44:33 INFO  Utils:54 - Successfully started service 'sparkWorker' on port 42957.
2018-11-30 17:44:34 INFO  Worker:54 - Starting Spark worker 172.22.156.15:42957 with 4 cores, 2.7 GB RAM
2018-11-30 17:44:34 INFO  Worker:54 - Running Spark version 2.4.0
2018-11-30 17:44:34 INFO  Worker:54 - Spark home: /home/avkhann2/spark-2.4.0-bin-hadoop2.7
2018-11-30 17:44:34 INFO  log:192 - Logging initialized @4098ms
2018-11-30 17:44:34 INFO  Server:351 - jetty-9.3.z-SNAPSHOT, build timestamp: unknown, git hash: unknown
2018-11-30 17:44:34 INFO  Server:419 - Started @4399ms
2018-11-30 17:44:34 INFO  AbstractConnector:278 - Started ServerConnector@68d43e83{HTTP/1.1,[http/1.1]}{0.0.0.0:8081}
2018-11-30 17:44:34 INFO  Utils:54 - Successfully started service 'WorkerUI' on port 8081.
2018-11-30 17:44:34 INFO  ContextHandler:781 - Started o.s.j.s.ServletContextHandler@35ee7fc8{/logPage,null,AVAILABLE,@Spark}
2018-11-30 17:44:34 INFO  ContextHandler:781 - Started o.s.j.s.ServletContextHandler@414d640a{/logPage/json,null,AVAILABLE,@Spark}
2018-11-30 17:44:34 INFO  ContextHandler:781 - Started o.s.j.s.ServletContextHandler@4fa0e07{/,null,AVAILABLE,@Spark}
2018-11-30 17:44:34 INFO  ContextHandler:781 - Started o.s.j.s.ServletContextHandler@3935db4f{/json,null,AVAILABLE,@Spark}
2018-11-30 17:44:34 INFO  ContextHandler:781 - Started o.s.j.s.ServletContextHandler@13f29557{/static,null,AVAILABLE,@Spark}
2018-11-30 17:44:34 INFO  ContextHandler:781 - Started o.s.j.s.ServletContextHandler@3feafa84{/log,null,AVAILABLE,@Spark}
2018-11-30 17:44:34 INFO  WorkerWebUI:54 - Bound WorkerWebUI to 0.0.0.0, and started at http://master:8081
2018-11-30 17:44:34 INFO  Worker:54 - Connecting to master 172.22.156.15:7077...
2018-11-30 17:44:35 INFO  ContextHandler:781 - Started o.s.j.s.ServletContextHandler@58f3d09b{/metrics/json,null,AVAILABLE,@Spark}
2018-11-30 17:44:35 INFO  TransportClientFactory:267 - Successfully created connection to /172.22.156.15:7077 after 129 ms (0 ms spent in bootstraps)
2018-11-30 17:44:35 INFO  Worker:54 - Successfully registered with master spark://172.22.156.15:7077
2018-11-30 17:46:10 ERROR Worker:43 - RECEIVED SIGNAL TERM
