Spark Command: /usr/lib/jvm/jre-1.8.0-openjdk/bin/java -cp /home/avkhann2/spark-2.4.0-bin-hadoop2.7//conf/:/home/avkhann2/spark-2.4.0-bin-hadoop2.7/jars/* -Xmx1g org.apache.spark.deploy.master.Master --host 172.22.156.15 --port 7077 --webui-port 8080
========================================
2018-12-01 15:53:44 INFO  Master:2566 - Started daemon with process name: 10673@fa18-cs425-g05-01.cs.illinois.edu
2018-12-01 15:53:44 INFO  SignalUtils:54 - Registered signal handler for TERM
2018-12-01 15:53:44 INFO  SignalUtils:54 - Registered signal handler for HUP
2018-12-01 15:53:44 INFO  SignalUtils:54 - Registered signal handler for INT
2018-12-01 15:53:45 WARN  NativeCodeLoader:62 - Unable to load native-hadoop library for your platform... using builtin-java classes where applicable
2018-12-01 15:53:45 INFO  SecurityManager:54 - Changing view acls to: avkhann2
2018-12-01 15:53:45 INFO  SecurityManager:54 - Changing modify acls to: avkhann2
2018-12-01 15:53:45 INFO  SecurityManager:54 - Changing view acls groups to: 
2018-12-01 15:53:45 INFO  SecurityManager:54 - Changing modify acls groups to: 
2018-12-01 15:53:45 INFO  SecurityManager:54 - SecurityManager: authentication disabled; ui acls disabled; users  with view permissions: Set(avkhann2); groups with view permissions: Set(); users  with modify permissions: Set(avkhann2); groups with modify permissions: Set()
2018-12-01 15:53:46 INFO  Utils:54 - Successfully started service 'sparkMaster' on port 7077.
2018-12-01 15:53:46 INFO  Master:54 - Starting Spark master at spark://172.22.156.15:7077
2018-12-01 15:53:46 INFO  Master:54 - Running Spark version 2.4.0
2018-12-01 15:53:46 INFO  log:192 - Logging initialized @4221ms
2018-12-01 15:53:46 INFO  Server:351 - jetty-9.3.z-SNAPSHOT, build timestamp: unknown, git hash: unknown
2018-12-01 15:53:46 INFO  Server:419 - Started @4373ms
2018-12-01 15:53:46 INFO  AbstractConnector:278 - Started ServerConnector@67fe9291{HTTP/1.1,[http/1.1]}{0.0.0.0:8080}
2018-12-01 15:53:46 INFO  Utils:54 - Successfully started service 'MasterUI' on port 8080.
2018-12-01 15:53:47 INFO  ContextHandler:781 - Started o.s.j.s.ServletContextHandler@2d33f2d2{/app,null,AVAILABLE,@Spark}
2018-12-01 15:53:47 INFO  ContextHandler:781 - Started o.s.j.s.ServletContextHandler@5ab7da24{/app/json,null,AVAILABLE,@Spark}
2018-12-01 15:53:47 INFO  ContextHandler:781 - Started o.s.j.s.ServletContextHandler@efc66fd{/,null,AVAILABLE,@Spark}
2018-12-01 15:53:47 INFO  ContextHandler:781 - Started o.s.j.s.ServletContextHandler@77eb12f0{/json,null,AVAILABLE,@Spark}
2018-12-01 15:53:47 INFO  ContextHandler:781 - Started o.s.j.s.ServletContextHandler@136980d3{/static,null,AVAILABLE,@Spark}
2018-12-01 15:53:47 INFO  ContextHandler:781 - Started o.s.j.s.ServletContextHandler@5d776978{/app/kill,null,AVAILABLE,@Spark}
2018-12-01 15:53:47 INFO  ContextHandler:781 - Started o.s.j.s.ServletContextHandler@46a931b1{/driver/kill,null,AVAILABLE,@Spark}
2018-12-01 15:53:47 INFO  MasterWebUI:54 - Bound MasterWebUI to 0.0.0.0, and started at http://master:8080
2018-12-01 15:53:47 INFO  ContextHandler:781 - Started o.s.j.s.ServletContextHandler@506a047d{/metrics/master/json,null,AVAILABLE,@Spark}
2018-12-01 15:53:47 INFO  ContextHandler:781 - Started o.s.j.s.ServletContextHandler@267f4755{/metrics/applications/json,null,AVAILABLE,@Spark}
2018-12-01 15:53:47 INFO  Master:54 - I have been elected leader! New state: ALIVE
2018-12-01 15:53:49 INFO  Master:54 - Registering worker 172.22.158.16:45319 with 8 cores, 2.7 GB RAM
2018-12-01 15:53:49 INFO  Master:54 - Registering worker 172.22.158.15:42928 with 8 cores, 2.7 GB RAM
2018-12-01 15:53:50 INFO  Master:54 - Registering worker 172.22.158.17:43559 with 8 cores, 2.7 GB RAM
2018-12-01 15:53:50 INFO  Master:54 - Registering worker 172.22.156.18:34418 with 8 cores, 2.7 GB RAM
2018-12-01 15:53:50 INFO  Master:54 - Registering worker 172.22.156.16:44929 with 8 cores, 2.7 GB RAM
2018-12-01 15:53:50 INFO  Master:54 - Registering worker 172.22.154.17:35472 with 8 cores, 2.7 GB RAM
2018-12-01 15:53:50 INFO  Master:54 - Registering worker 172.22.154.18:37752 with 8 cores, 2.7 GB RAM
2018-12-01 15:53:51 INFO  Master:54 - Registering worker 172.22.154.16:41202 with 8 cores, 2.7 GB RAM
2018-12-01 15:54:11 INFO  Master:54 - Registering app PythonWordCount
2018-12-01 15:54:11 INFO  Master:54 - Registered app PythonWordCount with ID app-20181201155411-0000
2018-12-01 15:54:11 INFO  Master:54 - Launching executor app-20181201155411-0000/0 on worker worker-20181201155349-172.22.154.17-35472
2018-12-01 15:54:11 INFO  Master:54 - Launching executor app-20181201155411-0000/1 on worker worker-20181201155349-172.22.156.16-44929
2018-12-01 15:54:11 INFO  Master:54 - Launching executor app-20181201155411-0000/2 on worker worker-20181201155349-172.22.154.16-41202
2018-12-01 15:54:11 INFO  Master:54 - Launching executor app-20181201155411-0000/3 on worker worker-20181201155349-172.22.158.17-43559
2018-12-01 15:54:11 INFO  Master:54 - Launching executor app-20181201155411-0000/4 on worker worker-20181201155349-172.22.156.18-34418
2018-12-01 15:54:11 INFO  Master:54 - Launching executor app-20181201155411-0000/5 on worker worker-20181201155349-172.22.154.18-37752
2018-12-01 15:54:11 INFO  Master:54 - Launching executor app-20181201155411-0000/6 on worker worker-20181201155348-172.22.158.16-45319
2018-12-01 15:54:11 INFO  Master:54 - Launching executor app-20181201155411-0000/7 on worker worker-20181201155348-172.22.158.15-42928
2018-12-01 15:54:35 INFO  Master:54 - Received unregister request from application app-20181201155411-0000
2018-12-01 15:54:35 INFO  Master:54 - Removing app app-20181201155411-0000
2018-12-01 15:54:36 INFO  Master:54 - 172.22.156.15:48028 got disassociated, removing it.
2018-12-01 15:54:36 INFO  Master:54 - master:36387 got disassociated, removing it.
2018-12-01 15:54:36 WARN  Master:66 - Got status update for unknown executor app-20181201155411-0000/7
2018-12-01 15:54:36 WARN  Master:66 - Got status update for unknown executor app-20181201155411-0000/1
2018-12-01 15:54:36 WARN  Master:66 - Got status update for unknown executor app-20181201155411-0000/6
2018-12-01 15:54:36 WARN  Master:66 - Got status update for unknown executor app-20181201155411-0000/2
2018-12-01 15:54:36 WARN  Master:66 - Got status update for unknown executor app-20181201155411-0000/0
2018-12-01 15:54:36 WARN  Master:66 - Got status update for unknown executor app-20181201155411-0000/4
2018-12-01 15:54:36 WARN  Master:66 - Got status update for unknown executor app-20181201155411-0000/3
2018-12-01 15:54:36 WARN  Master:66 - Got status update for unknown executor app-20181201155411-0000/5
2018-12-01 15:55:39 INFO  Master:54 - Registering app PythonWordCount
2018-12-01 15:55:39 INFO  Master:54 - Registered app PythonWordCount with ID app-20181201155539-0001
2018-12-01 15:55:39 INFO  Master:54 - Launching executor app-20181201155539-0001/0 on worker worker-20181201155349-172.22.154.17-35472
2018-12-01 15:55:39 INFO  Master:54 - Launching executor app-20181201155539-0001/1 on worker worker-20181201155349-172.22.156.16-44929
2018-12-01 15:55:39 INFO  Master:54 - Launching executor app-20181201155539-0001/2 on worker worker-20181201155349-172.22.154.16-41202
2018-12-01 15:55:39 INFO  Master:54 - Launching executor app-20181201155539-0001/3 on worker worker-20181201155349-172.22.158.17-43559
2018-12-01 15:55:39 INFO  Master:54 - Launching executor app-20181201155539-0001/4 on worker worker-20181201155349-172.22.156.18-34418
2018-12-01 15:55:39 INFO  Master:54 - Launching executor app-20181201155539-0001/5 on worker worker-20181201155349-172.22.154.18-37752
2018-12-01 15:55:39 INFO  Master:54 - Launching executor app-20181201155539-0001/6 on worker worker-20181201155348-172.22.158.16-45319
2018-12-01 15:55:39 INFO  Master:54 - Launching executor app-20181201155539-0001/7 on worker worker-20181201155348-172.22.158.15-42928
2018-12-01 15:55:51 INFO  Master:54 - Received unregister request from application app-20181201155539-0001
2018-12-01 15:55:51 INFO  Master:54 - Removing app app-20181201155539-0001
2018-12-01 15:55:51 INFO  Master:54 - 172.22.156.15:48032 got disassociated, removing it.
2018-12-01 15:55:51 INFO  Master:54 - master:33040 got disassociated, removing it.
2018-12-01 15:55:51 WARN  Master:66 - Got status update for unknown executor app-20181201155539-0001/7
2018-12-01 15:55:51 WARN  Master:66 - Got status update for unknown executor app-20181201155539-0001/5
2018-12-01 15:55:51 WARN  Master:66 - Got status update for unknown executor app-20181201155539-0001/4
2018-12-01 15:55:51 WARN  Master:66 - Got status update for unknown executor app-20181201155539-0001/6
2018-12-01 15:55:51 WARN  Master:66 - Got status update for unknown executor app-20181201155539-0001/1
2018-12-01 15:55:51 WARN  Master:66 - Got status update for unknown executor app-20181201155539-0001/2
2018-12-01 15:55:51 WARN  Master:66 - Got status update for unknown executor app-20181201155539-0001/3
2018-12-01 15:55:51 WARN  Master:66 - Got status update for unknown executor app-20181201155539-0001/0
2018-12-01 17:29:07 INFO  Master:54 - Registering app PythonFilter
2018-12-01 17:29:07 INFO  Master:54 - Registered app PythonFilter with ID app-20181201172907-0002
2018-12-01 17:29:07 INFO  Master:54 - Launching executor app-20181201172907-0002/0 on worker worker-20181201155349-172.22.154.17-35472
2018-12-01 17:29:07 INFO  Master:54 - Launching executor app-20181201172907-0002/1 on worker worker-20181201155349-172.22.156.16-44929
2018-12-01 17:29:07 INFO  Master:54 - Launching executor app-20181201172907-0002/2 on worker worker-20181201155349-172.22.154.16-41202
2018-12-01 17:29:07 INFO  Master:54 - Launching executor app-20181201172907-0002/3 on worker worker-20181201155349-172.22.158.17-43559
2018-12-01 17:29:07 INFO  Master:54 - Launching executor app-20181201172907-0002/4 on worker worker-20181201155349-172.22.156.18-34418
2018-12-01 17:29:07 INFO  Master:54 - Launching executor app-20181201172907-0002/5 on worker worker-20181201155349-172.22.154.18-37752
2018-12-01 17:29:07 INFO  Master:54 - Launching executor app-20181201172907-0002/6 on worker worker-20181201155348-172.22.158.16-45319
2018-12-01 17:29:07 INFO  Master:54 - Launching executor app-20181201172907-0002/7 on worker worker-20181201155348-172.22.158.15-42928
2018-12-01 17:30:53 INFO  Master:54 - Removing executor app-20181201172907-0002/6 because it is EXITED
2018-12-01 17:30:53 INFO  Master:54 - Launching executor app-20181201172907-0002/8 on worker worker-20181201155348-172.22.158.16-45319
2018-12-01 17:31:18 INFO  Master:54 - Removing executor app-20181201172907-0002/2 because it is EXITED
2018-12-01 17:31:18 INFO  Master:54 - Launching executor app-20181201172907-0002/9 on worker worker-20181201155349-172.22.154.16-41202
2018-12-01 17:31:34 INFO  Master:54 - Removing executor app-20181201172907-0002/3 because it is EXITED
2018-12-01 17:31:34 INFO  Master:54 - Launching executor app-20181201172907-0002/10 on worker worker-20181201155349-172.22.158.17-43559
2018-12-01 17:31:39 INFO  Master:54 - Removing executor app-20181201172907-0002/1 because it is EXITED
2018-12-01 17:31:39 INFO  Master:54 - Launching executor app-20181201172907-0002/11 on worker worker-20181201155349-172.22.156.16-44929
2018-12-01 17:31:43 INFO  Master:54 - Removing executor app-20181201172907-0002/5 because it is EXITED
2018-12-01 17:31:43 INFO  Master:54 - Launching executor app-20181201172907-0002/12 on worker worker-20181201155349-172.22.154.18-37752
2018-12-01 17:31:46 INFO  Master:54 - Removing executor app-20181201172907-0002/4 because it is EXITED
2018-12-01 17:31:46 INFO  Master:54 - Launching executor app-20181201172907-0002/13 on worker worker-20181201155349-172.22.156.18-34418
2018-12-01 17:32:07 INFO  Master:54 - Removing executor app-20181201172907-0002/0 because it is EXITED
2018-12-01 17:32:07 INFO  Master:54 - Launching executor app-20181201172907-0002/14 on worker worker-20181201155349-172.22.154.17-35472
2018-12-01 17:32:28 INFO  Master:54 - Removing executor app-20181201172907-0002/7 because it is EXITED
2018-12-01 17:32:28 INFO  Master:54 - Launching executor app-20181201172907-0002/15 on worker worker-20181201155348-172.22.158.15-42928
2018-12-01 17:32:55 INFO  Master:54 - Received unregister request from application app-20181201172907-0002
2018-12-01 17:32:55 INFO  Master:54 - Removing app app-20181201172907-0002
2018-12-01 17:32:55 INFO  Master:54 - 172.22.156.15:48360 got disassociated, removing it.
2018-12-01 17:32:55 INFO  Master:54 - master:40268 got disassociated, removing it.
2018-12-01 17:32:55 WARN  Master:66 - Got status update for unknown executor app-20181201172907-0002/9
2018-12-01 17:32:56 WARN  Master:66 - Got status update for unknown executor app-20181201172907-0002/10
2018-12-01 17:32:56 WARN  Master:66 - Got status update for unknown executor app-20181201172907-0002/8
2018-12-01 17:32:56 WARN  Master:66 - Got status update for unknown executor app-20181201172907-0002/15
2018-12-01 17:32:56 WARN  Master:66 - Got status update for unknown executor app-20181201172907-0002/12
2018-12-01 17:32:56 WARN  Master:66 - Got status update for unknown executor app-20181201172907-0002/11
2018-12-01 17:32:56 WARN  Master:66 - Got status update for unknown executor app-20181201172907-0002/14
2018-12-01 17:32:56 WARN  Master:66 - Got status update for unknown executor app-20181201172907-0002/13
2018-12-01 17:38:10 INFO  Master:54 - Registering app PythonFilter
2018-12-01 17:38:10 INFO  Master:54 - Registered app PythonFilter with ID app-20181201173810-0003
2018-12-01 17:38:10 INFO  Master:54 - Launching executor app-20181201173810-0003/0 on worker worker-20181201155349-172.22.154.17-35472
2018-12-01 17:38:10 INFO  Master:54 - Launching executor app-20181201173810-0003/1 on worker worker-20181201155349-172.22.156.16-44929
2018-12-01 17:38:10 INFO  Master:54 - Launching executor app-20181201173810-0003/2 on worker worker-20181201155349-172.22.154.16-41202
2018-12-01 17:38:10 INFO  Master:54 - Launching executor app-20181201173810-0003/3 on worker worker-20181201155349-172.22.158.17-43559
2018-12-01 17:38:10 INFO  Master:54 - Launching executor app-20181201173810-0003/4 on worker worker-20181201155349-172.22.156.18-34418
2018-12-01 17:38:10 INFO  Master:54 - Launching executor app-20181201173810-0003/5 on worker worker-20181201155349-172.22.154.18-37752
2018-12-01 17:38:10 INFO  Master:54 - Launching executor app-20181201173810-0003/6 on worker worker-20181201155348-172.22.158.16-45319
2018-12-01 17:38:10 INFO  Master:54 - Launching executor app-20181201173810-0003/7 on worker worker-20181201155348-172.22.158.15-42928
2018-12-01 17:39:54 INFO  Master:54 - Received unregister request from application app-20181201173810-0003
2018-12-01 17:39:54 INFO  Master:54 - Removing app app-20181201173810-0003
2018-12-01 17:39:54 INFO  Master:54 - 172.22.156.15:48474 got disassociated, removing it.
2018-12-01 17:39:54 INFO  Master:54 - master:39310 got disassociated, removing it.
2018-12-01 17:39:55 WARN  Master:66 - Got status update for unknown executor app-20181201173810-0003/0
2018-12-01 17:39:55 WARN  Master:66 - Got status update for unknown executor app-20181201173810-0003/6
2018-12-01 17:39:55 WARN  Master:66 - Got status update for unknown executor app-20181201173810-0003/5
2018-12-01 17:39:55 WARN  Master:66 - Got status update for unknown executor app-20181201173810-0003/3
2018-12-01 17:39:55 WARN  Master:66 - Got status update for unknown executor app-20181201173810-0003/4
2018-12-01 17:39:55 WARN  Master:66 - Got status update for unknown executor app-20181201173810-0003/1
2018-12-01 17:39:55 WARN  Master:66 - Got status update for unknown executor app-20181201173810-0003/7
2018-12-01 17:39:55 WARN  Master:66 - Got status update for unknown executor app-20181201173810-0003/2
2018-12-01 17:42:37 WARN  Master:66 - Got status update for unknown executor app-20181201172907-0002/0
2018-12-01 17:42:37 WARN  Master:66 - Got status update for unknown executor app-20181201172907-0002/7
2018-12-01 17:42:37 WARN  Master:66 - Got status update for unknown executor app-20181201172907-0002/6
2018-12-01 17:42:37 WARN  Master:66 - Got status update for unknown executor app-20181201172907-0002/1
2018-12-01 17:42:37 WARN  Master:66 - Got status update for unknown executor app-20181201172907-0002/5
2018-12-01 17:42:37 WARN  Master:66 - Got status update for unknown executor app-20181201172907-0002/3
2018-12-01 17:42:37 WARN  Master:66 - Got status update for unknown executor app-20181201172907-0002/2
2018-12-01 17:42:37 WARN  Master:66 - Got status update for unknown executor app-20181201172907-0002/4
2018-12-01 17:42:38 INFO  Master:54 - 172.22.154.17:50536 got disassociated, removing it.
2018-12-01 17:42:38 INFO  Master:54 - 172.22.154.17:35472 got disassociated, removing it.
2018-12-01 17:42:38 INFO  Master:54 - Removing worker worker-20181201155349-172.22.154.17-35472 on 172.22.154.17:35472
2018-12-01 17:42:38 INFO  Master:54 - Telling app of lost worker: worker-20181201155349-172.22.154.17-35472
2018-12-01 17:42:38 ERROR Master:43 - RECEIVED SIGNAL TERM
