Spark Command: /usr/lib/jvm/jre-1.8.0-openjdk/bin/java -cp /home/avkhann2/spark-2.4.0-bin-hadoop2.7//conf/:/home/avkhann2/spark-2.4.0-bin-hadoop2.7/jars/* -Xmx1g org.apache.spark.deploy.master.Master --host 172.22.156.15 --port 7077 --webui-port 8080
========================================
2018-12-01 17:43:01 INFO  Master:2566 - Started daemon with process name: 12325@fa18-cs425-g05-01.cs.illinois.edu
2018-12-01 17:43:01 INFO  SignalUtils:54 - Registered signal handler for TERM
2018-12-01 17:43:01 INFO  SignalUtils:54 - Registered signal handler for HUP
2018-12-01 17:43:01 INFO  SignalUtils:54 - Registered signal handler for INT
2018-12-01 17:43:02 WARN  NativeCodeLoader:62 - Unable to load native-hadoop library for your platform... using builtin-java classes where applicable
2018-12-01 17:43:02 INFO  SecurityManager:54 - Changing view acls to: avkhann2
2018-12-01 17:43:02 INFO  SecurityManager:54 - Changing modify acls to: avkhann2
2018-12-01 17:43:02 INFO  SecurityManager:54 - Changing view acls groups to: 
2018-12-01 17:43:02 INFO  SecurityManager:54 - Changing modify acls groups to: 
2018-12-01 17:43:02 INFO  SecurityManager:54 - SecurityManager: authentication disabled; ui acls disabled; users  with view permissions: Set(avkhann2); groups with view permissions: Set(); users  with modify permissions: Set(avkhann2); groups with modify permissions: Set()
2018-12-01 17:43:03 INFO  Utils:54 - Successfully started service 'sparkMaster' on port 7077.
2018-12-01 17:43:03 INFO  Master:54 - Starting Spark master at spark://172.22.156.15:7077
2018-12-01 17:43:03 INFO  Master:54 - Running Spark version 2.4.0
2018-12-01 17:43:03 INFO  log:192 - Logging initialized @3338ms
2018-12-01 17:43:03 INFO  Server:351 - jetty-9.3.z-SNAPSHOT, build timestamp: unknown, git hash: unknown
2018-12-01 17:43:03 INFO  Server:419 - Started @3498ms
2018-12-01 17:43:04 INFO  AbstractConnector:278 - Started ServerConnector@4cd2749b{HTTP/1.1,[http/1.1]}{0.0.0.0:8080}
2018-12-01 17:43:04 INFO  Utils:54 - Successfully started service 'MasterUI' on port 8080.
2018-12-01 17:43:04 INFO  ContextHandler:781 - Started o.s.j.s.ServletContextHandler@29f51007{/app,null,AVAILABLE,@Spark}
2018-12-01 17:43:04 INFO  ContextHandler:781 - Started o.s.j.s.ServletContextHandler@400f6ee4{/app/json,null,AVAILABLE,@Spark}
2018-12-01 17:43:04 INFO  ContextHandler:781 - Started o.s.j.s.ServletContextHandler@38ab9845{/,null,AVAILABLE,@Spark}
2018-12-01 17:43:04 INFO  ContextHandler:781 - Started o.s.j.s.ServletContextHandler@43ac5900{/json,null,AVAILABLE,@Spark}
2018-12-01 17:43:04 INFO  ContextHandler:781 - Started o.s.j.s.ServletContextHandler@786f67df{/static,null,AVAILABLE,@Spark}
2018-12-01 17:43:04 INFO  ContextHandler:781 - Started o.s.j.s.ServletContextHandler@d466465{/app/kill,null,AVAILABLE,@Spark}
2018-12-01 17:43:04 INFO  ContextHandler:781 - Started o.s.j.s.ServletContextHandler@68f5e3a2{/driver/kill,null,AVAILABLE,@Spark}
2018-12-01 17:43:04 INFO  MasterWebUI:54 - Bound MasterWebUI to 0.0.0.0, and started at http://master:8080
2018-12-01 17:43:04 INFO  ContextHandler:781 - Started o.s.j.s.ServletContextHandler@23ea2b09{/metrics/master/json,null,AVAILABLE,@Spark}
2018-12-01 17:43:04 INFO  ContextHandler:781 - Started o.s.j.s.ServletContextHandler@2bc3124b{/metrics/applications/json,null,AVAILABLE,@Spark}
2018-12-01 17:43:04 INFO  Master:54 - I have been elected leader! New state: ALIVE
2018-12-01 17:43:07 INFO  Master:54 - Registering worker 172.22.158.16:37296 with 8 cores, 2.7 GB RAM
2018-12-01 17:43:07 INFO  Master:54 - Registering worker 172.22.154.18:41634 with 8 cores, 2.7 GB RAM
2018-12-01 17:43:07 INFO  Master:54 - Registering worker 172.22.154.16:45921 with 8 cores, 2.7 GB RAM
2018-12-01 17:43:07 INFO  Master:54 - Registering worker 172.22.154.17:33632 with 8 cores, 2.7 GB RAM
2018-12-01 17:43:07 INFO  Master:54 - Registering worker 172.22.158.15:34981 with 8 cores, 2.7 GB RAM
2018-12-01 17:43:08 INFO  Master:54 - Registering worker 172.22.156.16:38205 with 8 cores, 2.7 GB RAM
2018-12-01 17:43:08 INFO  Master:54 - Registering worker 172.22.156.18:45408 with 8 cores, 2.7 GB RAM
2018-12-01 17:43:08 INFO  Master:54 - Registering worker 172.22.158.17:38682 with 8 cores, 2.7 GB RAM
2018-12-01 17:43:27 INFO  Master:54 - Registering app PythonFilter
2018-12-01 17:43:27 INFO  Master:54 - Registered app PythonFilter with ID app-20181201174327-0000
2018-12-01 17:43:28 INFO  Master:54 - Launching executor app-20181201174327-0000/0 on worker worker-20181201174306-172.22.158.15-34981
2018-12-01 17:43:28 INFO  Master:54 - Launching executor app-20181201174327-0000/1 on worker worker-20181201174306-172.22.154.18-41634
2018-12-01 17:43:28 INFO  Master:54 - Launching executor app-20181201174327-0000/2 on worker worker-20181201174306-172.22.154.16-45921
2018-12-01 17:43:28 INFO  Master:54 - Launching executor app-20181201174327-0000/3 on worker worker-20181201174306-172.22.158.16-37296
2018-12-01 17:43:28 INFO  Master:54 - Launching executor app-20181201174327-0000/4 on worker worker-20181201174306-172.22.156.16-38205
2018-12-01 17:43:28 INFO  Master:54 - Launching executor app-20181201174327-0000/5 on worker worker-20181201174306-172.22.156.18-45408
2018-12-01 17:43:28 INFO  Master:54 - Launching executor app-20181201174327-0000/6 on worker worker-20181201174306-172.22.158.17-38682
2018-12-01 17:43:28 INFO  Master:54 - Launching executor app-20181201174327-0000/7 on worker worker-20181201174306-172.22.154.17-33632
2018-12-01 17:44:08 INFO  Master:54 - Received unregister request from application app-20181201174327-0000
2018-12-01 17:44:08 INFO  Master:54 - Removing app app-20181201174327-0000
2018-12-01 17:44:08 INFO  Master:54 - 172.22.156.15:48640 got disassociated, removing it.
2018-12-01 17:44:08 INFO  Master:54 - master:43298 got disassociated, removing it.
2018-12-01 17:44:08 WARN  Master:66 - Got status update for unknown executor app-20181201174327-0000/3
2018-12-01 17:44:08 WARN  Master:66 - Got status update for unknown executor app-20181201174327-0000/7
2018-12-01 17:44:08 WARN  Master:66 - Got status update for unknown executor app-20181201174327-0000/1
2018-12-01 17:44:08 WARN  Master:66 - Got status update for unknown executor app-20181201174327-0000/2
2018-12-01 17:44:08 WARN  Master:66 - Got status update for unknown executor app-20181201174327-0000/6
2018-12-01 17:44:08 WARN  Master:66 - Got status update for unknown executor app-20181201174327-0000/5
2018-12-01 17:44:08 WARN  Master:66 - Got status update for unknown executor app-20181201174327-0000/4
2018-12-01 17:44:08 WARN  Master:66 - Got status update for unknown executor app-20181201174327-0000/0
2018-12-01 17:44:26 ERROR Master:43 - RECEIVED SIGNAL TERM
