Spark Command: /usr/lib/jvm/jre-1.8.0-openjdk/bin/java -cp /home/avkhann2/spark-2.4.0-bin-hadoop2.7//conf/:/home/avkhann2/spark-2.4.0-bin-hadoop2.7/jars/* -Xmx1g org.apache.spark.deploy.master.Master --host 172.22.156.15 --port 7077 --webui-port 8080
========================================
2018-12-01 14:05:14 INFO  Master:2566 - Started daemon with process name: 7922@fa18-cs425-g05-01.cs.illinois.edu
2018-12-01 14:05:14 INFO  SignalUtils:54 - Registered signal handler for TERM
2018-12-01 14:05:14 INFO  SignalUtils:54 - Registered signal handler for HUP
2018-12-01 14:05:14 INFO  SignalUtils:54 - Registered signal handler for INT
2018-12-01 14:05:16 WARN  NativeCodeLoader:62 - Unable to load native-hadoop library for your platform... using builtin-java classes where applicable
2018-12-01 14:05:16 INFO  SecurityManager:54 - Changing view acls to: avkhann2
2018-12-01 14:05:16 INFO  SecurityManager:54 - Changing modify acls to: avkhann2
2018-12-01 14:05:16 INFO  SecurityManager:54 - Changing view acls groups to: 
2018-12-01 14:05:16 INFO  SecurityManager:54 - Changing modify acls groups to: 
2018-12-01 14:05:16 INFO  SecurityManager:54 - SecurityManager: authentication disabled; ui acls disabled; users  with view permissions: Set(avkhann2); groups with view permissions: Set(); users  with modify permissions: Set(avkhann2); groups with modify permissions: Set()
2018-12-01 14:05:17 INFO  Utils:54 - Successfully started service 'sparkMaster' on port 7077.
2018-12-01 14:05:17 INFO  Master:54 - Starting Spark master at spark://172.22.156.15:7077
2018-12-01 14:05:17 INFO  Master:54 - Running Spark version 2.4.0
2018-12-01 14:05:17 INFO  log:192 - Logging initialized @4510ms
2018-12-01 14:05:17 INFO  Server:351 - jetty-9.3.z-SNAPSHOT, build timestamp: unknown, git hash: unknown
2018-12-01 14:05:17 INFO  Server:419 - Started @4757ms
2018-12-01 14:05:17 INFO  AbstractConnector:278 - Started ServerConnector@3a65dd5e{HTTP/1.1,[http/1.1]}{0.0.0.0:8080}
2018-12-01 14:05:17 INFO  Utils:54 - Successfully started service 'MasterUI' on port 8080.
2018-12-01 14:05:17 INFO  ContextHandler:781 - Started o.s.j.s.ServletContextHandler@57116148{/app,null,AVAILABLE,@Spark}
2018-12-01 14:05:17 INFO  ContextHandler:781 - Started o.s.j.s.ServletContextHandler@5a50dd1f{/app/json,null,AVAILABLE,@Spark}
2018-12-01 14:05:17 INFO  ContextHandler:781 - Started o.s.j.s.ServletContextHandler@142b057b{/,null,AVAILABLE,@Spark}
2018-12-01 14:05:17 INFO  ContextHandler:781 - Started o.s.j.s.ServletContextHandler@9dd0c9{/json,null,AVAILABLE,@Spark}
2018-12-01 14:05:17 INFO  ContextHandler:781 - Started o.s.j.s.ServletContextHandler@5c794de0{/static,null,AVAILABLE,@Spark}
2018-12-01 14:05:17 INFO  ContextHandler:781 - Started o.s.j.s.ServletContextHandler@72889ddf{/app/kill,null,AVAILABLE,@Spark}
2018-12-01 14:05:17 INFO  ContextHandler:781 - Started o.s.j.s.ServletContextHandler@2a864c7a{/driver/kill,null,AVAILABLE,@Spark}
2018-12-01 14:05:17 INFO  MasterWebUI:54 - Bound MasterWebUI to 0.0.0.0, and started at http://master:8080
2018-12-01 14:05:18 INFO  ContextHandler:781 - Started o.s.j.s.ServletContextHandler@4478a8c8{/metrics/master/json,null,AVAILABLE,@Spark}
2018-12-01 14:05:18 INFO  ContextHandler:781 - Started o.s.j.s.ServletContextHandler@138a3889{/metrics/applications/json,null,AVAILABLE,@Spark}
2018-12-01 14:05:18 INFO  Master:54 - I have been elected leader! New state: ALIVE
2018-12-01 14:05:20 INFO  Master:54 - Registering worker 172.22.158.16:37367 with 8 cores, 2.7 GB RAM
2018-12-01 14:05:20 INFO  Master:54 - Registering worker 172.22.158.17:43354 with 8 cores, 2.7 GB RAM
2018-12-01 14:05:21 INFO  Master:54 - Registering worker 172.22.158.15:41468 with 8 cores, 2.7 GB RAM
2018-12-01 14:05:22 INFO  Master:54 - Registering worker 172.22.156.18:36540 with 8 cores, 2.7 GB RAM
2018-12-01 14:05:22 INFO  Master:54 - Registering worker 172.22.154.17:37982 with 8 cores, 2.7 GB RAM
2018-12-01 14:05:22 INFO  Master:54 - Registering worker 172.22.154.18:40765 with 8 cores, 2.7 GB RAM
2018-12-01 14:05:22 INFO  Master:54 - Registering worker 172.22.156.16:34770 with 8 cores, 2.7 GB RAM
2018-12-01 14:05:23 INFO  Master:54 - Registering worker 172.22.154.16:42327 with 8 cores, 2.7 GB RAM
2018-12-01 14:06:26 INFO  Master:54 - Registering app PythonWordCount
2018-12-01 14:06:26 INFO  Master:54 - Registered app PythonWordCount with ID app-20181201140626-0000
2018-12-01 14:06:26 INFO  Master:54 - Launching executor app-20181201140626-0000/0 on worker worker-20181201140520-172.22.158.15-41468
2018-12-01 14:06:26 INFO  Master:54 - Launching executor app-20181201140626-0000/1 on worker worker-20181201140521-172.22.154.18-40765
2018-12-01 14:06:26 INFO  Master:54 - Launching executor app-20181201140626-0000/2 on worker worker-20181201140519-172.22.158.17-43354
2018-12-01 14:06:26 INFO  Master:54 - Launching executor app-20181201140626-0000/3 on worker worker-20181201140522-172.22.154.16-42327
2018-12-01 14:06:26 INFO  Master:54 - Launching executor app-20181201140626-0000/4 on worker worker-20181201140521-172.22.156.18-36540
2018-12-01 14:06:26 INFO  Master:54 - Launching executor app-20181201140626-0000/5 on worker worker-20181201140521-172.22.154.17-37982
2018-12-01 14:06:26 INFO  Master:54 - Launching executor app-20181201140626-0000/6 on worker worker-20181201140519-172.22.158.16-37367
2018-12-01 14:06:26 INFO  Master:54 - Launching executor app-20181201140626-0000/7 on worker worker-20181201140521-172.22.156.16-34770
2018-12-01 14:06:39 INFO  Master:54 - Received unregister request from application app-20181201140626-0000
2018-12-01 14:06:39 INFO  Master:54 - Removing app app-20181201140626-0000
2018-12-01 14:06:39 INFO  Master:54 - 172.22.156.15:47388 got disassociated, removing it.
2018-12-01 14:06:39 INFO  Master:54 - master:36488 got disassociated, removing it.
2018-12-01 14:06:39 WARN  Master:66 - Got status update for unknown executor app-20181201140626-0000/6
2018-12-01 14:06:39 WARN  Master:66 - Got status update for unknown executor app-20181201140626-0000/4
2018-12-01 14:06:39 WARN  Master:66 - Got status update for unknown executor app-20181201140626-0000/3
2018-12-01 14:06:39 WARN  Master:66 - Got status update for unknown executor app-20181201140626-0000/0
2018-12-01 14:06:39 WARN  Master:66 - Got status update for unknown executor app-20181201140626-0000/7
2018-12-01 14:06:39 WARN  Master:66 - Got status update for unknown executor app-20181201140626-0000/1
2018-12-01 14:06:40 WARN  Master:66 - Got status update for unknown executor app-20181201140626-0000/5
2018-12-01 14:06:40 WARN  Master:66 - Got status update for unknown executor app-20181201140626-0000/2
2018-12-01 14:32:10 INFO  Master:54 - Registering app Spark shell
2018-12-01 14:32:10 INFO  Master:54 - Registered app Spark shell with ID app-20181201143210-0001
2018-12-01 14:32:10 INFO  Master:54 - Launching executor app-20181201143210-0001/0 on worker worker-20181201140520-172.22.158.15-41468
2018-12-01 14:32:10 INFO  Master:54 - Launching executor app-20181201143210-0001/1 on worker worker-20181201140521-172.22.154.18-40765
2018-12-01 14:32:10 INFO  Master:54 - Launching executor app-20181201143210-0001/2 on worker worker-20181201140519-172.22.158.17-43354
2018-12-01 14:32:10 INFO  Master:54 - Launching executor app-20181201143210-0001/3 on worker worker-20181201140522-172.22.154.16-42327
2018-12-01 14:32:10 INFO  Master:54 - Launching executor app-20181201143210-0001/4 on worker worker-20181201140521-172.22.156.18-36540
2018-12-01 14:32:10 INFO  Master:54 - Launching executor app-20181201143210-0001/5 on worker worker-20181201140521-172.22.154.17-37982
2018-12-01 14:32:10 INFO  Master:54 - Launching executor app-20181201143210-0001/6 on worker worker-20181201140519-172.22.158.16-37367
2018-12-01 14:32:10 INFO  Master:54 - Launching executor app-20181201143210-0001/7 on worker worker-20181201140521-172.22.156.16-34770
2018-12-01 14:34:55 INFO  Master:54 - Received unregister request from application app-20181201143210-0001
2018-12-01 14:34:55 INFO  Master:54 - Removing app app-20181201143210-0001
2018-12-01 14:34:55 WARN  Master:66 - Got status update for unknown executor app-20181201143210-0001/6
2018-12-01 14:34:55 WARN  Master:66 - Got status update for unknown executor app-20181201143210-0001/0
2018-12-01 14:34:55 WARN  Master:66 - Got status update for unknown executor app-20181201143210-0001/1
2018-12-01 14:34:55 WARN  Master:66 - Got status update for unknown executor app-20181201143210-0001/2
2018-12-01 14:34:55 INFO  Master:54 - 172.22.156.15:47508 got disassociated, removing it.
2018-12-01 14:34:55 INFO  Master:54 - master:39410 got disassociated, removing it.
2018-12-01 14:34:55 WARN  Master:66 - Got status update for unknown executor app-20181201143210-0001/4
2018-12-01 14:34:55 WARN  Master:66 - Got status update for unknown executor app-20181201143210-0001/3
2018-12-01 14:34:55 WARN  Master:66 - Got status update for unknown executor app-20181201143210-0001/7
2018-12-01 14:34:55 WARN  Master:66 - Got status update for unknown executor app-20181201143210-0001/5
2018-12-01 14:35:42 INFO  Master:54 - Registering app Spark shell
2018-12-01 14:35:42 INFO  Master:54 - Registered app Spark shell with ID app-20181201143542-0002
2018-12-01 14:35:42 INFO  Master:54 - Launching executor app-20181201143542-0002/0 on worker worker-20181201140520-172.22.158.15-41468
2018-12-01 14:35:42 INFO  Master:54 - Launching executor app-20181201143542-0002/1 on worker worker-20181201140521-172.22.154.18-40765
2018-12-01 14:35:42 INFO  Master:54 - Launching executor app-20181201143542-0002/2 on worker worker-20181201140519-172.22.158.17-43354
2018-12-01 14:35:42 INFO  Master:54 - Launching executor app-20181201143542-0002/3 on worker worker-20181201140522-172.22.154.16-42327
2018-12-01 14:35:42 INFO  Master:54 - Launching executor app-20181201143542-0002/4 on worker worker-20181201140521-172.22.156.18-36540
2018-12-01 14:35:42 INFO  Master:54 - Launching executor app-20181201143542-0002/5 on worker worker-20181201140521-172.22.154.17-37982
2018-12-01 14:35:42 INFO  Master:54 - Launching executor app-20181201143542-0002/6 on worker worker-20181201140519-172.22.158.16-37367
2018-12-01 14:35:42 INFO  Master:54 - Launching executor app-20181201143542-0002/7 on worker worker-20181201140521-172.22.156.16-34770
2018-12-01 14:39:50 INFO  Master:54 - Received unregister request from application app-20181201143542-0002
2018-12-01 14:39:50 INFO  Master:54 - Removing app app-20181201143542-0002
2018-12-01 14:39:51 INFO  Master:54 - 172.22.156.15:47570 got disassociated, removing it.
2018-12-01 14:39:51 INFO  Master:54 - master:35063 got disassociated, removing it.
2018-12-01 14:39:51 WARN  Master:66 - Got status update for unknown executor app-20181201143542-0002/4
2018-12-01 14:39:51 WARN  Master:66 - Got status update for unknown executor app-20181201143542-0002/3
2018-12-01 14:39:51 WARN  Master:66 - Got status update for unknown executor app-20181201143542-0002/1
2018-12-01 14:39:51 WARN  Master:66 - Got status update for unknown executor app-20181201143542-0002/6
2018-12-01 14:39:51 WARN  Master:66 - Got status update for unknown executor app-20181201143542-0002/7
2018-12-01 14:39:51 WARN  Master:66 - Got status update for unknown executor app-20181201143542-0002/2
2018-12-01 14:39:51 WARN  Master:66 - Got status update for unknown executor app-20181201143542-0002/0
2018-12-01 14:39:51 WARN  Master:66 - Got status update for unknown executor app-20181201143542-0002/5
2018-12-01 14:40:11 INFO  Master:54 - Registering app Spark shell
2018-12-01 14:40:11 INFO  Master:54 - Registered app Spark shell with ID app-20181201144011-0003
2018-12-01 14:40:11 INFO  Master:54 - Launching executor app-20181201144011-0003/0 on worker worker-20181201140520-172.22.158.15-41468
2018-12-01 14:40:11 INFO  Master:54 - Launching executor app-20181201144011-0003/1 on worker worker-20181201140521-172.22.154.18-40765
2018-12-01 14:40:11 INFO  Master:54 - Launching executor app-20181201144011-0003/2 on worker worker-20181201140519-172.22.158.17-43354
2018-12-01 14:40:11 INFO  Master:54 - Launching executor app-20181201144011-0003/3 on worker worker-20181201140522-172.22.154.16-42327
2018-12-01 14:40:11 INFO  Master:54 - Launching executor app-20181201144011-0003/4 on worker worker-20181201140521-172.22.156.18-36540
2018-12-01 14:40:11 INFO  Master:54 - Launching executor app-20181201144011-0003/5 on worker worker-20181201140521-172.22.154.17-37982
2018-12-01 14:40:11 INFO  Master:54 - Launching executor app-20181201144011-0003/6 on worker worker-20181201140519-172.22.158.16-37367
2018-12-01 14:40:11 INFO  Master:54 - Launching executor app-20181201144011-0003/7 on worker worker-20181201140521-172.22.156.16-34770
2018-12-01 14:41:47 INFO  Master:54 - Received unregister request from application app-20181201144011-0003
2018-12-01 14:41:47 INFO  Master:54 - Removing app app-20181201144011-0003
2018-12-01 14:41:47 WARN  Master:66 - Got status update for unknown executor app-20181201144011-0003/6
2018-12-01 14:41:47 WARN  Master:66 - Got status update for unknown executor app-20181201144011-0003/3
2018-12-01 14:41:47 WARN  Master:66 - Got status update for unknown executor app-20181201144011-0003/0
2018-12-01 14:41:47 INFO  Master:54 - 172.22.156.15:47572 got disassociated, removing it.
2018-12-01 14:41:47 INFO  Master:54 - master:39988 got disassociated, removing it.
2018-12-01 14:41:47 WARN  Master:66 - Got status update for unknown executor app-20181201144011-0003/4
2018-12-01 14:41:47 WARN  Master:66 - Got status update for unknown executor app-20181201144011-0003/7
2018-12-01 14:41:47 WARN  Master:66 - Got status update for unknown executor app-20181201144011-0003/2
2018-12-01 14:41:47 WARN  Master:66 - Got status update for unknown executor app-20181201144011-0003/1
2018-12-01 14:41:47 WARN  Master:66 - Got status update for unknown executor app-20181201144011-0003/5
2018-12-01 14:42:49 INFO  Master:54 - Registering app Spark shell
2018-12-01 14:42:49 INFO  Master:54 - Registered app Spark shell with ID app-20181201144249-0004
2018-12-01 14:42:49 INFO  Master:54 - Launching executor app-20181201144249-0004/0 on worker worker-20181201140520-172.22.158.15-41468
2018-12-01 14:42:49 INFO  Master:54 - Launching executor app-20181201144249-0004/1 on worker worker-20181201140521-172.22.154.18-40765
2018-12-01 14:42:49 INFO  Master:54 - Launching executor app-20181201144249-0004/2 on worker worker-20181201140519-172.22.158.17-43354
2018-12-01 14:42:49 INFO  Master:54 - Launching executor app-20181201144249-0004/3 on worker worker-20181201140522-172.22.154.16-42327
2018-12-01 14:42:49 INFO  Master:54 - Launching executor app-20181201144249-0004/4 on worker worker-20181201140521-172.22.156.18-36540
2018-12-01 14:42:49 INFO  Master:54 - Launching executor app-20181201144249-0004/5 on worker worker-20181201140521-172.22.154.17-37982
2018-12-01 14:42:49 INFO  Master:54 - Launching executor app-20181201144249-0004/6 on worker worker-20181201140519-172.22.158.16-37367
2018-12-01 14:42:49 INFO  Master:54 - Launching executor app-20181201144249-0004/7 on worker worker-20181201140521-172.22.156.16-34770
2018-12-01 14:44:07 INFO  Master:54 - Received unregister request from application app-20181201144249-0004
2018-12-01 14:44:07 INFO  Master:54 - Removing app app-20181201144249-0004
2018-12-01 14:44:07 INFO  Master:54 - 172.22.156.15:47576 got disassociated, removing it.
2018-12-01 14:44:07 INFO  Master:54 - master:34660 got disassociated, removing it.
2018-12-01 14:44:07 WARN  Master:66 - Got status update for unknown executor app-20181201144249-0004/0
2018-12-01 14:44:07 WARN  Master:66 - Got status update for unknown executor app-20181201144249-0004/6
2018-12-01 14:44:07 WARN  Master:66 - Got status update for unknown executor app-20181201144249-0004/2
2018-12-01 14:44:08 WARN  Master:66 - Got status update for unknown executor app-20181201144249-0004/5
2018-12-01 14:44:08 WARN  Master:66 - Got status update for unknown executor app-20181201144249-0004/3
2018-12-01 14:44:08 WARN  Master:66 - Got status update for unknown executor app-20181201144249-0004/4
2018-12-01 14:44:08 WARN  Master:66 - Got status update for unknown executor app-20181201144249-0004/7
2018-12-01 14:44:08 WARN  Master:66 - Got status update for unknown executor app-20181201144249-0004/1
2018-12-01 15:23:35 INFO  Master:54 - Registering app PythonWordCount
2018-12-01 15:23:35 INFO  Master:54 - Registered app PythonWordCount with ID app-20181201152335-0005
2018-12-01 15:23:35 INFO  Master:54 - Launching executor app-20181201152335-0005/0 on worker worker-20181201140520-172.22.158.15-41468
2018-12-01 15:23:35 INFO  Master:54 - Launching executor app-20181201152335-0005/1 on worker worker-20181201140521-172.22.154.18-40765
2018-12-01 15:23:35 INFO  Master:54 - Launching executor app-20181201152335-0005/2 on worker worker-20181201140519-172.22.158.17-43354
2018-12-01 15:23:35 INFO  Master:54 - Launching executor app-20181201152335-0005/3 on worker worker-20181201140522-172.22.154.16-42327
2018-12-01 15:23:35 INFO  Master:54 - Launching executor app-20181201152335-0005/4 on worker worker-20181201140521-172.22.156.18-36540
2018-12-01 15:23:35 INFO  Master:54 - Launching executor app-20181201152335-0005/5 on worker worker-20181201140521-172.22.154.17-37982
2018-12-01 15:23:35 INFO  Master:54 - Launching executor app-20181201152335-0005/6 on worker worker-20181201140519-172.22.158.16-37367
2018-12-01 15:23:35 INFO  Master:54 - Launching executor app-20181201152335-0005/7 on worker worker-20181201140521-172.22.156.16-34770
2018-12-01 15:23:57 INFO  Master:54 - Received unregister request from application app-20181201152335-0005
2018-12-01 15:23:57 INFO  Master:54 - Removing app app-20181201152335-0005
2018-12-01 15:23:57 WARN  Master:66 - Got status update for unknown executor app-20181201152335-0005/1
2018-12-01 15:23:57 INFO  Master:54 - 172.22.156.15:47782 got disassociated, removing it.
2018-12-01 15:23:57 INFO  Master:54 - master:38967 got disassociated, removing it.
2018-12-01 15:23:58 WARN  Master:66 - Got status update for unknown executor app-20181201152335-0005/7
2018-12-01 15:23:58 WARN  Master:66 - Got status update for unknown executor app-20181201152335-0005/0
2018-12-01 15:23:58 WARN  Master:66 - Got status update for unknown executor app-20181201152335-0005/6
2018-12-01 15:23:58 WARN  Master:66 - Got status update for unknown executor app-20181201152335-0005/4
2018-12-01 15:23:58 WARN  Master:66 - Got status update for unknown executor app-20181201152335-0005/2
2018-12-01 15:23:58 WARN  Master:66 - Got status update for unknown executor app-20181201152335-0005/5
2018-12-01 15:23:58 WARN  Master:66 - Got status update for unknown executor app-20181201152335-0005/3
2018-12-01 15:28:23 INFO  Master:54 - Registering app PythonWordCount
2018-12-01 15:28:23 INFO  Master:54 - Registered app PythonWordCount with ID app-20181201152823-0006
2018-12-01 15:28:23 INFO  Master:54 - Launching executor app-20181201152823-0006/0 on worker worker-20181201140520-172.22.158.15-41468
2018-12-01 15:28:23 INFO  Master:54 - Launching executor app-20181201152823-0006/1 on worker worker-20181201140521-172.22.154.18-40765
2018-12-01 15:28:23 INFO  Master:54 - Launching executor app-20181201152823-0006/2 on worker worker-20181201140519-172.22.158.17-43354
2018-12-01 15:28:23 INFO  Master:54 - Launching executor app-20181201152823-0006/3 on worker worker-20181201140522-172.22.154.16-42327
2018-12-01 15:28:23 INFO  Master:54 - Launching executor app-20181201152823-0006/4 on worker worker-20181201140521-172.22.156.18-36540
2018-12-01 15:28:23 INFO  Master:54 - Launching executor app-20181201152823-0006/5 on worker worker-20181201140521-172.22.154.17-37982
2018-12-01 15:28:23 INFO  Master:54 - Launching executor app-20181201152823-0006/6 on worker worker-20181201140519-172.22.158.16-37367
2018-12-01 15:28:23 INFO  Master:54 - Launching executor app-20181201152823-0006/7 on worker worker-20181201140521-172.22.156.16-34770
2018-12-01 15:28:37 INFO  Master:54 - Received unregister request from application app-20181201152823-0006
2018-12-01 15:28:37 INFO  Master:54 - Removing app app-20181201152823-0006
2018-12-01 15:28:37 INFO  Master:54 - 172.22.156.15:47804 got disassociated, removing it.
2018-12-01 15:28:37 INFO  Master:54 - master:39352 got disassociated, removing it.
2018-12-01 15:28:37 WARN  Master:66 - Got status update for unknown executor app-20181201152823-0006/5
2018-12-01 15:28:37 WARN  Master:66 - Got status update for unknown executor app-20181201152823-0006/6
2018-12-01 15:28:37 WARN  Master:66 - Got status update for unknown executor app-20181201152823-0006/0
2018-12-01 15:28:37 WARN  Master:66 - Got status update for unknown executor app-20181201152823-0006/2
2018-12-01 15:28:37 WARN  Master:66 - Got status update for unknown executor app-20181201152823-0006/1
2018-12-01 15:28:37 WARN  Master:66 - Got status update for unknown executor app-20181201152823-0006/7
2018-12-01 15:28:37 WARN  Master:66 - Got status update for unknown executor app-20181201152823-0006/3
2018-12-01 15:28:37 WARN  Master:66 - Got status update for unknown executor app-20181201152823-0006/4
2018-12-01 15:29:33 INFO  Master:54 - Registering app PythonWordCount
2018-12-01 15:29:33 INFO  Master:54 - Registered app PythonWordCount with ID app-20181201152933-0007
2018-12-01 15:29:33 INFO  Master:54 - Launching executor app-20181201152933-0007/0 on worker worker-20181201140520-172.22.158.15-41468
2018-12-01 15:29:33 INFO  Master:54 - Launching executor app-20181201152933-0007/1 on worker worker-20181201140521-172.22.154.18-40765
2018-12-01 15:29:33 INFO  Master:54 - Launching executor app-20181201152933-0007/2 on worker worker-20181201140519-172.22.158.17-43354
2018-12-01 15:29:33 INFO  Master:54 - Launching executor app-20181201152933-0007/3 on worker worker-20181201140522-172.22.154.16-42327
2018-12-01 15:29:33 INFO  Master:54 - Launching executor app-20181201152933-0007/4 on worker worker-20181201140521-172.22.156.18-36540
2018-12-01 15:29:33 INFO  Master:54 - Launching executor app-20181201152933-0007/5 on worker worker-20181201140521-172.22.154.17-37982
2018-12-01 15:29:33 INFO  Master:54 - Launching executor app-20181201152933-0007/6 on worker worker-20181201140519-172.22.158.16-37367
2018-12-01 15:29:33 INFO  Master:54 - Launching executor app-20181201152933-0007/7 on worker worker-20181201140521-172.22.156.16-34770
2018-12-01 15:29:44 INFO  Master:54 - Received unregister request from application app-20181201152933-0007
2018-12-01 15:29:44 INFO  Master:54 - Removing app app-20181201152933-0007
2018-12-01 15:29:44 INFO  Master:54 - 172.22.156.15:47870 got disassociated, removing it.
2018-12-01 15:29:44 INFO  Master:54 - master:41634 got disassociated, removing it.
2018-12-01 15:29:44 WARN  Master:66 - Got status update for unknown executor app-20181201152933-0007/6
2018-12-01 15:29:45 WARN  Master:66 - Got status update for unknown executor app-20181201152933-0007/0
2018-12-01 15:29:45 WARN  Master:66 - Got status update for unknown executor app-20181201152933-0007/1
2018-12-01 15:29:45 WARN  Master:66 - Got status update for unknown executor app-20181201152933-0007/2
2018-12-01 15:29:45 WARN  Master:66 - Got status update for unknown executor app-20181201152933-0007/3
2018-12-01 15:29:45 WARN  Master:66 - Got status update for unknown executor app-20181201152933-0007/4
2018-12-01 15:29:45 WARN  Master:66 - Got status update for unknown executor app-20181201152933-0007/7
2018-12-01 15:29:45 WARN  Master:66 - Got status update for unknown executor app-20181201152933-0007/5
2018-12-01 15:53:40 ERROR Master:43 - RECEIVED SIGNAL TERM
