Spark Command: /usr/lib/jvm/jre-1.8.0-openjdk/bin/java -cp /home/avkhann2/spark-2.4.0-bin-hadoop2.7//conf/:/home/avkhann2/spark-2.4.0-bin-hadoop2.7/jars/* -Xmx1g org.apache.spark.deploy.master.Master --host 172.22.156.15 --port 7077 --webui-port 8080
========================================
2018-11-30 18:04:52 INFO  Master:2566 - Started daemon with process name: 27705@fa18-cs425-g05-01.cs.illinois.edu
2018-11-30 18:04:52 INFO  SignalUtils:54 - Registered signal handler for TERM
2018-11-30 18:04:52 INFO  SignalUtils:54 - Registered signal handler for HUP
2018-11-30 18:04:52 INFO  SignalUtils:54 - Registered signal handler for INT
2018-11-30 18:04:53 WARN  NativeCodeLoader:62 - Unable to load native-hadoop library for your platform... using builtin-java classes where applicable
2018-11-30 18:04:53 INFO  SecurityManager:54 - Changing view acls to: avkhann2
2018-11-30 18:04:53 INFO  SecurityManager:54 - Changing modify acls to: avkhann2
2018-11-30 18:04:53 INFO  SecurityManager:54 - Changing view acls groups to: 
2018-11-30 18:04:53 INFO  SecurityManager:54 - Changing modify acls groups to: 
2018-11-30 18:04:53 INFO  SecurityManager:54 - SecurityManager: authentication disabled; ui acls disabled; users  with view permissions: Set(avkhann2); groups with view permissions: Set(); users  with modify permissions: Set(avkhann2); groups with modify permissions: Set()
2018-11-30 18:04:54 INFO  Utils:54 - Successfully started service 'sparkMaster' on port 7077.
2018-11-30 18:04:54 INFO  Master:54 - Starting Spark master at spark://172.22.156.15:7077
2018-11-30 18:04:54 INFO  Master:54 - Running Spark version 2.4.0
2018-11-30 18:04:54 INFO  log:192 - Logging initialized @3003ms
2018-11-30 18:04:54 INFO  Server:351 - jetty-9.3.z-SNAPSHOT, build timestamp: unknown, git hash: unknown
2018-11-30 18:04:54 INFO  Server:419 - Started @3165ms
2018-11-30 18:04:54 INFO  AbstractConnector:278 - Started ServerConnector@30420c69{HTTP/1.1,[http/1.1]}{0.0.0.0:8080}
2018-11-30 18:04:54 INFO  Utils:54 - Successfully started service 'MasterUI' on port 8080.
2018-11-30 18:04:54 INFO  ContextHandler:781 - Started o.s.j.s.ServletContextHandler@3e2875d3{/app,null,AVAILABLE,@Spark}
2018-11-30 18:04:54 INFO  ContextHandler:781 - Started o.s.j.s.ServletContextHandler@31874e67{/app/json,null,AVAILABLE,@Spark}
2018-11-30 18:04:54 INFO  ContextHandler:781 - Started o.s.j.s.ServletContextHandler@78c8307c{/,null,AVAILABLE,@Spark}
2018-11-30 18:04:54 INFO  ContextHandler:781 - Started o.s.j.s.ServletContextHandler@2b4a3f39{/json,null,AVAILABLE,@Spark}
2018-11-30 18:04:54 INFO  ContextHandler:781 - Started o.s.j.s.ServletContextHandler@20b5b841{/static,null,AVAILABLE,@Spark}
2018-11-30 18:04:54 INFO  ContextHandler:781 - Started o.s.j.s.ServletContextHandler@24ae377c{/app/kill,null,AVAILABLE,@Spark}
2018-11-30 18:04:54 INFO  ContextHandler:781 - Started o.s.j.s.ServletContextHandler@27bbbbe5{/driver/kill,null,AVAILABLE,@Spark}
2018-11-30 18:04:54 INFO  MasterWebUI:54 - Bound MasterWebUI to 0.0.0.0, and started at http://master:8080
2018-11-30 18:04:54 INFO  ContextHandler:781 - Started o.s.j.s.ServletContextHandler@77400b8a{/metrics/master/json,null,AVAILABLE,@Spark}
2018-11-30 18:04:54 INFO  ContextHandler:781 - Started o.s.j.s.ServletContextHandler@22b8aab5{/metrics/applications/json,null,AVAILABLE,@Spark}
2018-11-30 18:04:55 INFO  Master:54 - I have been elected leader! New state: ALIVE
2018-11-30 18:04:58 INFO  Master:54 - Registering worker 172.22.158.17:41005 with 8 cores, 2.7 GB RAM
2018-11-30 18:04:58 INFO  Master:54 - Registering worker 172.22.158.15:36857 with 8 cores, 2.7 GB RAM
2018-11-30 18:04:58 INFO  Master:54 - Registering worker 172.22.154.17:43148 with 8 cores, 2.7 GB RAM
2018-11-30 18:04:58 INFO  Master:54 - Registering worker 172.22.158.16:44537 with 8 cores, 2.7 GB RAM
2018-11-30 18:04:58 INFO  Master:54 - Registering worker 172.22.154.16:46874 with 8 cores, 2.7 GB RAM
2018-11-30 18:04:58 INFO  Master:54 - Registering worker 172.22.154.18:34177 with 8 cores, 2.7 GB RAM
2018-11-30 18:04:58 INFO  Master:54 - Registering worker 172.22.156.16:43442 with 8 cores, 2.7 GB RAM
2018-11-30 18:04:58 INFO  Master:54 - Registering worker 172.22.156.15:41118 with 4 cores, 2.7 GB RAM
2018-11-30 18:04:59 INFO  Master:54 - Registering worker 172.22.156.18:35378 with 8 cores, 2.7 GB RAM
2018-11-30 18:05:03 ERROR Master:43 - RECEIVED SIGNAL TERM
